<?xml version="1.0" encoding="UTF-8" standalone="no"?>
<!-- Created with Inkscape (http://www.inkscape.org/) -->

<svg
   xmlns:dc="http://purl.org/dc/elements/1.1/"
   xmlns:cc="http://creativecommons.org/ns#"
   xmlns:rdf="http://www.w3.org/1999/02/22-rdf-syntax-ns#"
   xmlns:svg="http://www.w3.org/2000/svg"
   xmlns="http://www.w3.org/2000/svg"
   xmlns:xlink="http://www.w3.org/1999/xlink"
   xmlns:sodipodi="http://sodipodi.sourceforge.net/DTD/sodipodi-0.dtd"
   xmlns:inkscape="http://www.inkscape.org/namespaces/inkscape"
   width="751.18109"
   height="92.125984"
   id="svg2"
   sodipodi:version="0.32"
   inkscape:version="0.91 r13725"
   version="1.0"
   sodipodi:docname="regle_non_graduee.svg"
   inkscape:output_extension="org.inkscape.output.svg.inkscape"
   inkscape:export-filename="/home/pascal/Documents/Programmation/pylote/pylote/images/instruments/regle2.png"
   inkscape:export-xdpi="200"
   inkscape:export-ydpi="200">
  <defs
     id="defs4">
    <inkscape:perspective
       sodipodi:type="inkscape:persp3d"
       inkscape:vp_x="0 : 50 : 1"
       inkscape:vp_y="0 : 1000 : 0"
       inkscape:vp_z="800 : 50 : 1"
       inkscape:persp3d-origin="400 : 33.333333 : 1"
       id="perspective10933" />
    <linearGradient
       id="linearGradient2900">
      <stop
         style="stop-color:white;stop-opacity:0.56194693;"
         offset="0"
         id="stop2902" />
      <stop
         style="stop-color:white;stop-opacity:0;"
         offset="1"
         id="stop2904" />
    </linearGradient>
    <linearGradient
       id="linearGradient2805">
      <stop
         style="stop-color:#d2b600;stop-opacity:0.72549021;"
         offset="0"
         id="stop2807" />
      <stop
         style="stop-color:#c6ff41;stop-opacity:0.66371679;"
         offset="1"
         id="stop2809" />
    </linearGradient>
    <linearGradient
       inkscape:collect="always"
       xlink:href="#linearGradient2900"
       id="linearGradient3509"
       gradientUnits="userSpaceOnUse"
       gradientTransform="matrix(0.92983407,0,0,1,0.41394358,7.9995)"
       x1="5.8994951"
       y1="8.485281"
       x2="5.8994951"
       y2="61.3125" />
  </defs>
  <sodipodi:namedview
     id="base"
     pagecolor="#ffffff"
     bordercolor="#666666"
     borderopacity="1.0"
     inkscape:pageopacity="0.0"
     inkscape:pageshadow="2"
     inkscape:zoom="0.54966504"
     inkscape:cx="164.87589"
     inkscape:cy="-5.6538881"
     inkscape:document-units="mm"
     inkscape:current-layer="layer1"
     width="800px"
     height="100px"
     inkscape:window-width="1366"
     inkscape:window-height="703"
     inkscape:window-x="0"
     inkscape:window-y="0"
     showgrid="false"
     inkscape:window-maximized="1"
     units="mm" />
  <metadata
     id="metadata7">
    <rdf:RDF>
      <cc:Work
         rdf:about="">
        <dc:format>image/svg+xml</dc:format>
        <dc:type
           rdf:resource="http://purl.org/dc/dcmitype/StillImage" />
        <dc:title></dc:title>
      </cc:Work>
    </rdf:RDF>
  </metadata>
  <g
     inkscape:label="Ebene 1"
     inkscape:groupmode="layer"
     id="layer1"
     transform="translate(0,-7.8740094)">
    <rect
       style="fill:#ffff00;fill-opacity:0.75886524;stroke:#000000;stroke-width:1.9477849;stroke-linejoin:miter;stroke-miterlimit:4;stroke-opacity:1;stroke-dasharray:none;stroke-dashoffset:0"
       id="rect2864"
       width="746.94788"
       height="88.0522"
       x="0.97389144"
       y="8.9739161"
       rx="15.166444"
       ry="16.009474" />
    <path
       style="opacity:0.90068497;fill:url(#linearGradient3509);fill-opacity:1;stroke:none"
       d="m 20.610716,16.484781 c -8.150008,0 -14.711221,6.148421 -14.711221,13.785697 l 0,39.041522 C 153.55866,53.389154 372.78271,43.302269 617.42083,43.302269 c 38.36077,0 76.07179,0.246971 113.00631,0.72698 l 0,-13.758771 c 0,-7.637276 -6.56119,-13.785697 -14.71123,-13.785697 l -695.105194,0 z"
       id="rect2784"
       inkscape:connector-curvature="0" />
  </g>
</svg>
